<?xml version="1.0" encoding="UTF-8" standalone="no"?>
<svg
   height="128"
   width="128"
   version="1.1"
   id="svg24"
   sodipodi:docname="icon.svg"
   inkscape:version="1.2.2 (732a01da63, 2022-12-09)"
   inkscape:export-filename="icon.webp"
   inkscape:export-xdpi="96"
   inkscape:export-ydpi="96"
   xmlns:inkscape="http://www.inkscape.org/namespaces/inkscape"
   xmlns:sodipodi="http://sodipodi.sourceforge.net/DTD/sodipodi-0.dtd"
   xmlns="http://www.w3.org/2000/svg"
   xmlns:svg="http://www.w3.org/2000/svg">
  <defs
     id="defs28">
    <inkscape:path-effect
       effect="mirror_symmetry"
       start_point="66.929,81.675"
       end_point="66.929,92.332931"
       center_point="66.929,87.003965"
       id="path-effect1390"
       is_visible="true"
       lpeversion="1.2"
       lpesatellites=""
       mode="vertical"
       discard_orig_path="false"
       fuse_paths="false"
       oposite_fuse="false"
       split_items="false"
       split_open="false"
       link_styles="false" />
  </defs>
  <sodipodi:namedview
     id="namedview26"
     pagecolor="#505050"
     bordercolor="#ffffff"
     borderopacity="1"
     inkscape:showpageshadow="0"
     inkscape:pageopacity="0"
     inkscape:pagecheckerboard="1"
     inkscape:deskcolor="#505050"
     showgrid="false"
     inkscape:zoom="6.4765625"
     inkscape:cx="50.721351"
     inkscape:cy="71.797346"
     inkscape:window-width="1920"
     inkscape:window-height="1009"
     inkscape:window-x="3832"
     inkscape:window-y="241"
     inkscape:window-maximized="1"
     inkscape:current-layer="svg24" />
  <path
     sodipodi:type="star"
     style="fill:#478cbf;stroke:#ffffff;stroke-width:3;stroke-linecap:round;stroke-linejoin:round;paint-order:stroke fill markers;fill-opacity:1;opacity:1"
     id="path365"
     inkscape:flatsided="true"
     sodipodi:sides="6"
     sodipodi:cx="48.693981"
     sodipodi:cy="38.212769"
     sodipodi:r1="53.702026"
     sodipodi:r2="46.50732"
     sodipodi:arg1="0.52359878"
     sodipodi:arg2="1.0471976"
     inkscape:rounded="0"
     inkscape:randomized="0"
     d="M 95.2013,65.063782 48.693981,91.914795 2.186662,65.063782 2.1866622,11.361755 48.693981,-15.489258 95.2013,11.361756 Z"
     transform="matrix(1.0421828,0,0,0.99942517,13.28597,27.863197)" />
  <path
     d="m 61.071,72.6355 c 0,3.434 5.858,3.434 5.858,0 v -8.686 c 0,-3.434 -5.858,-3.434 -5.858,0 z"
     id="path8"
     style="fill:#ffffff;stroke-width:0.101" />
  <circle
     cx="85.513"
     cy="65.161499"
     r="9.0900002"
     id="circle10"
     style="fill:#ffffff;stroke-width:0.101" />
  <circle
     cx="42.487"
     cy="65.161499"
     r="9.0900002"
     id="circle12"
     style="fill:#ffffff;stroke-width:0.101" />
  <g
     fill="#414042"
     id="g20"
     transform="matrix(0.101,0,0,0.101,12.288,12.0355)">
    <circle
       cx="307"
       cy="532"
       r="60"
       id="circle16" />
    <circle
       cx="717"
       cy="532"
       r="60"
       id="circle18" />
  </g>
  <path
     style="opacity:1;fill:none;fill-opacity:1;stroke:#ffffff;stroke-width:3;stroke-linecap:round;stroke-linejoin:round;paint-order:stroke fill markers"
     d="M 15.564872,82.111717 38.137515,83.300362 38.90953,91.17491 54.465621,92.332931 56.704463,84.26538 66.929,84.229052 M 112.43513,82.111717 89.862485,83.300362 89.09047,91.17491 73.534379,92.332931 71.295537,84.26538 61.071,84.229052"
     id="path1334"
     inkscape:path-effect="#path-effect1390"
     inkscape:original-d="M 15.564872,82.111717 38.137515,83.300362 38.90953,91.17491 54.465621,92.332931 56.704463,84.26538 66.929,84.229052"
     class="UnoptimicedTransforms"
     sodipodi:nodetypes="cccccc" />
  <text
     xml:space="preserve"
     style="font-size:27.8398px;opacity:1;fill:#ffffff;fill-opacity:1;stroke:#ffffff;stroke-width:3.01598;stroke-linecap:round;stroke-linejoin:round;stroke-dasharray:none;paint-order:stroke fill markers"
     x="42.869892"
     y="49.184349"
     id="text1542"
     transform="scale(1.0203525,0.98005345)"><tspan
       sodipodi:role="line"
       id="tspan1540"
       x="42.869892"
       y="49.184349"
       style="fill:#ffffff;fill-opacity:1;stroke-width:3.01598">2D</tspan></text>
</svg>
